module github.com/helmwave/helmwave

go 1.20

require (
	github.com/Masterminds/sprig/v3 v3.2.3
	github.com/databus23/helm-diff/v3 v3.8.1
	github.com/gofrs/flock v0.8.1
	github.com/hairyhenderson/gomplate/v3 v3.11.3
	github.com/hashicorp/go-multierror v1.1.1
	github.com/helmwave/asciigraph v1.0.0
	github.com/helmwave/logrus-emoji-formatter v1.1.0
	github.com/invopop/jsonschema v0.7.0
	github.com/mgutz/ansi v0.0.0-20200706080929-d51e80ef957d
	github.com/olekukonko/tablewriter v0.0.5
	github.com/otiai10/copy v1.12.0
	github.com/pkg/errors v0.9.1
	github.com/r3labs/diff/v3 v3.0.1
	github.com/sirupsen/logrus v1.9.3
	github.com/spf13/pflag v1.0.5
	github.com/stoewer/go-strcase v1.2.0
	github.com/stretchr/testify v1.8.4
	github.com/urfave/cli/v2 v2.25.7
	github.com/werf/kubedog v0.9.12
	github.com/werf/logboek v0.5.5
	golang.org/x/exp v0.0.0-20220909182711-5c715a9e8561
	gopkg.in/yaml.v3 v3.0.1
	helm.sh/helm/v3 v3.12.2
	k8s.io/apimachinery v0.27.4
	k8s.io/cli-runtime v0.27.4
	k8s.io/client-go v0.27.4
	k8s.io/klog v1.0.0
	k8s.io/klog/v2 v2.100.1
)

require (
	cloud.google.com/go v0.110.0 // indirect
	cloud.google.com/go/compute v1.18.0 // indirect
	cloud.google.com/go/compute/metadata v0.2.3 // indirect
	cloud.google.com/go/iam v0.12.0 // indirect
	cloud.google.com/go/storage v1.28.1 // indirect
	github.com/AdaLogics/go-fuzz-headers v0.0.0-20230106234847-43070de90fa1 // indirect
	github.com/Azure/go-ansiterm v0.0.0-20210617225240-d185dfc1b5a1 // indirect
	github.com/BurntSushi/toml v1.3.2 // indirect
	github.com/MakeNowJust/heredoc v1.0.0 // indirect
	github.com/Masterminds/goutils v1.1.1 // indirect
	github.com/Masterminds/semver/v3 v3.2.1 // indirect
	github.com/Masterminds/squirrel v1.5.4 // indirect
	github.com/Microsoft/go-winio v0.6.0 // indirect
	github.com/ProtonMail/go-crypto v0.0.0-20220930113650-c6815a8c17ad // indirect
	github.com/Shopify/ejson v1.3.3 // indirect
	github.com/acarl005/stripansi v0.0.0-20180116102854-5a71ef0e047d // indirect
	github.com/acomagu/bufpipe v1.0.3 // indirect
	github.com/apparentlymart/go-cidr v1.1.0 // indirect
	github.com/armon/go-metrics v0.4.1 // indirect
	github.com/armon/go-radix v1.0.0 // indirect
	github.com/aryann/difflib v0.0.0-20210328193216-ff5ff6dc229b // indirect
	github.com/asaskevich/govalidator v0.0.0-20210307081110-f21760c49a8d // indirect
	github.com/avelino/slugify v0.0.0-20180501145920-855f152bd774 // indirect
	github.com/aws/aws-sdk-go v1.44.204 // indirect
	github.com/aws/aws-sdk-go-v2 v1.17.1 // indirect
	github.com/aws/aws-sdk-go-v2/aws/protocol/eventstream v1.4.9 // indirect
	github.com/aws/aws-sdk-go-v2/config v1.17.10 // indirect
	github.com/aws/aws-sdk-go-v2/credentials v1.12.23 // indirect
	github.com/aws/aws-sdk-go-v2/feature/ec2/imds v1.12.19 // indirect
	github.com/aws/aws-sdk-go-v2/feature/s3/manager v1.11.37 // indirect
	github.com/aws/aws-sdk-go-v2/internal/configsources v1.1.25 // indirect
	github.com/aws/aws-sdk-go-v2/internal/endpoints/v2 v2.4.19 // indirect
	github.com/aws/aws-sdk-go-v2/internal/ini v1.3.26 // indirect
	github.com/aws/aws-sdk-go-v2/internal/v4a v1.0.16 // indirect
	github.com/aws/aws-sdk-go-v2/service/internal/accept-encoding v1.9.10 // indirect
	github.com/aws/aws-sdk-go-v2/service/internal/checksum v1.1.20 // indirect
	github.com/aws/aws-sdk-go-v2/service/internal/presigned-url v1.9.19 // indirect
	github.com/aws/aws-sdk-go-v2/service/internal/s3shared v1.13.19 // indirect
	github.com/aws/aws-sdk-go-v2/service/s3 v1.29.1 // indirect
	github.com/aws/aws-sdk-go-v2/service/sso v1.11.25 // indirect
	github.com/aws/aws-sdk-go-v2/service/ssooidc v1.13.8 // indirect
	github.com/aws/aws-sdk-go-v2/service/sts v1.17.1 // indirect
	github.com/aws/smithy-go v1.13.4 // indirect
	github.com/beorn7/perks v1.0.1 // indirect
	github.com/cenkalti/backoff/v3 v3.2.2 // indirect
	github.com/cespare/xxhash/v2 v2.2.0 // indirect
	github.com/chai2010/gettext-go v1.0.2 // indirect
	github.com/cloudflare/circl v1.3.3 // indirect
	github.com/containerd/containerd v1.7.0 // indirect
	github.com/cpuguy83/go-md2man/v2 v2.0.2 // indirect
	github.com/cyphar/filepath-securejoin v0.2.3 // indirect
	github.com/davecgh/go-spew v1.1.1 // indirect
	github.com/docker/cli v23.0.1+incompatible // indirect
	github.com/docker/distribution v2.8.2+incompatible // indirect
	github.com/docker/docker v23.0.3+incompatible // indirect
	github.com/docker/docker-credential-helpers v0.7.0 // indirect
	github.com/docker/go-connections v0.4.0 // indirect
	github.com/docker/go-metrics v0.0.1 // indirect
	github.com/docker/go-units v0.5.0 // indirect
	github.com/docker/libkv v0.2.2-0.20180912205406-458977154600 // indirect
	github.com/dustin/gojson v0.0.0-20160307161227-2e71ec9dd5ad // indirect
	github.com/emicklei/go-restful/v3 v3.10.1 // indirect
	github.com/emirpasic/gods v1.18.1 // indirect
	github.com/evanphx/json-patch v5.6.0+incompatible // indirect
	github.com/exponent-io/jsonpath v0.0.0-20210407135951-1de76d718b3f // indirect
	github.com/fatih/color v1.13.0 // indirect
	github.com/fluxcd/flagger v1.29.0 // indirect
	github.com/go-errors/errors v1.4.2 // indirect
	github.com/go-git/gcfg v1.5.0 // indirect
	github.com/go-git/go-billy/v5 v5.3.1 // indirect
	github.com/go-git/go-git/v5 v5.4.2 // indirect
	github.com/go-gorp/gorp/v3 v3.1.0 // indirect
	github.com/go-logr/logr v1.2.4 // indirect
	github.com/go-logr/stdr v1.2.2 // indirect
	github.com/go-openapi/jsonpointer v0.19.6 // indirect
	github.com/go-openapi/jsonreference v0.20.2 // indirect
	github.com/go-openapi/swag v0.22.3 // indirect
	github.com/gobwas/glob v0.2.3 // indirect
	github.com/gogo/protobuf v1.3.2 // indirect
	github.com/golang/groupcache v0.0.0-20210331224755-41bb18bfe9da // indirect
	github.com/golang/protobuf v1.5.3 // indirect
	github.com/golang/snappy v0.0.4 // indirect
	github.com/gonvenience/bunt v1.3.5 // indirect
	github.com/gonvenience/neat v1.3.11 // indirect
	github.com/gonvenience/term v1.0.2 // indirect
	github.com/gonvenience/text v1.0.7 // indirect
	github.com/gonvenience/wrap v1.1.2 // indirect
	github.com/gonvenience/ytbx v1.4.4 // indirect
	github.com/google/btree v1.1.2 // indirect
	github.com/google/gnostic v0.6.9 // indirect
	github.com/google/go-cmp v0.5.9 // indirect
	github.com/google/gofuzz v1.2.0 // indirect
	github.com/google/shlex v0.0.0-20191202100458-e7afc7fbc510 // indirect
	github.com/google/uuid v1.3.0 // indirect
	github.com/google/wire v0.5.0 // indirect
	github.com/googleapis/enterprise-certificate-proxy v0.2.3 // indirect
	github.com/googleapis/gax-go/v2 v2.7.0 // indirect
	github.com/gookit/color v1.5.2 // indirect
	github.com/gorilla/mux v1.8.0 // indirect
	github.com/gosimple/slug v1.13.1 // indirect
	github.com/gosimple/unidecode v1.0.1 // indirect
	github.com/gosuri/uitable v0.0.4 // indirect
	github.com/gregjones/httpcache v0.0.0-20190611155906-901d90724c79 // indirect
	github.com/hairyhenderson/go-fsimpl v0.0.0-20221023172337-9ab2d391c5e8 // indirect
	github.com/hairyhenderson/toml v0.4.2-0.20210923231440-40456b8e66cf // indirect
	github.com/hairyhenderson/yaml v0.0.0-20220618171115-2d35fca545ce // indirect
	github.com/hashicorp/consul/api v1.15.3 // indirect
	github.com/hashicorp/errwrap v1.1.0 // indirect
	github.com/hashicorp/go-cleanhttp v0.5.2 // indirect
	github.com/hashicorp/go-hclog v1.3.1 // indirect
	github.com/hashicorp/go-immutable-radix v1.3.1 // indirect
	github.com/hashicorp/go-plugin v1.4.5 // indirect
	github.com/hashicorp/go-retryablehttp v0.7.1 // indirect
	github.com/hashicorp/go-rootcerts v1.0.2 // indirect
	github.com/hashicorp/go-secure-stdlib/mlock v0.1.2 // indirect
	github.com/hashicorp/go-secure-stdlib/parseutil v0.1.7 // indirect
	github.com/hashicorp/go-secure-stdlib/strutil v0.1.2 // indirect
	github.com/hashicorp/go-sockaddr v1.0.2 // indirect
	github.com/hashicorp/go-uuid v1.0.3 // indirect
	github.com/hashicorp/go-version v1.6.0 // indirect
	github.com/hashicorp/golang-lru v0.5.4 // indirect
	github.com/hashicorp/hcl v1.0.0 // indirect
	github.com/hashicorp/serf v0.10.1 // indirect
	github.com/hashicorp/vault/api v1.8.1 // indirect
	github.com/hashicorp/vault/sdk v0.6.0 // indirect
	github.com/hashicorp/yamux v0.1.1 // indirect
	github.com/homeport/dyff v1.5.7 // indirect
	github.com/huandu/xstrings v1.4.0 // indirect
	github.com/iancoleman/orderedmap v0.2.0 // indirect
	github.com/imdario/mergo v0.3.13 // indirect
	github.com/inconshreveable/mousetrap v1.1.0 // indirect
	github.com/jbenet/go-context v0.0.0-20150711004518-d14ea06fba99 // indirect
	github.com/jmespath/go-jmespath v0.4.0 // indirect
	github.com/jmoiron/sqlx v1.3.5 // indirect
	github.com/joho/godotenv v1.4.0 // indirect
	github.com/josharian/intern v1.0.0 // indirect
	github.com/json-iterator/go v1.1.12 // indirect
	github.com/kevinburke/ssh_config v1.2.0 // indirect
	github.com/klauspost/compress v1.16.0 // indirect
	github.com/lann/builder v0.0.0-20180802200727-47ae307949d0 // indirect
	github.com/lann/ps v0.0.0-20150810152359-62de8c46ede0 // indirect
	github.com/lib/pq v1.10.9 // indirect
	github.com/liggitt/tabwriter v0.0.0-20181228230101-89fcab3d43de // indirect
	github.com/lucasb-eyer/go-colorful v1.2.0 // indirect
	github.com/mailru/easyjson v0.7.7 // indirect
	github.com/mattn/go-ciede2000 v0.0.0-20170301095244-782e8c62fec3 // indirect
	github.com/mattn/go-colorable v0.1.13 // indirect
	github.com/mattn/go-isatty v0.0.18 // indirect
	github.com/mattn/go-runewidth v0.0.14 // indirect
	github.com/matttproud/golang_protobuf_extensions v1.0.4 // indirect
	github.com/mitchellh/copystructure v1.2.0 // indirect
	github.com/mitchellh/go-homedir v1.1.0 // indirect
	github.com/mitchellh/go-ps v1.0.0 // indirect
	github.com/mitchellh/go-testing-interface v1.14.1 // indirect
	github.com/mitchellh/go-wordwrap v1.0.1 // indirect
	github.com/mitchellh/hashstructure v1.1.0 // indirect
	github.com/mitchellh/mapstructure v1.5.0 // indirect
	github.com/mitchellh/reflectwalk v1.0.2 // indirect
	github.com/moby/locker v1.0.1 // indirect
	github.com/moby/spdystream v0.2.0 // indirect
	github.com/moby/term v0.0.0-20221205130635-1aeaba878587 // indirect
	github.com/modern-go/concurrent v0.0.0-20180306012644-bacd9c7ef1dd // indirect
	github.com/modern-go/reflect2 v1.0.2 // indirect
	github.com/monochromegane/go-gitignore v0.0.0-20200626010858-205db1a8cc00 // indirect
	github.com/morikuni/aec v1.0.0 // indirect
	github.com/munnerz/goautoneg v0.0.0-20191010083416-a7dc8b61c822 // indirect
	github.com/oklog/run v1.1.0 // indirect
	github.com/opencontainers/go-digest v1.0.0 // indirect
	github.com/opencontainers/image-spec v1.1.0-rc2.0.20221005185240-3a7f492d3f1b // indirect
	github.com/peterbourgon/diskv v2.0.1+incompatible // indirect
	github.com/pierrec/lz4 v2.6.1+incompatible // indirect
	github.com/pmezard/go-difflib v1.0.0 // indirect
	github.com/prometheus/client_golang v1.14.0 // indirect
	github.com/prometheus/client_model v0.3.0 // indirect
	github.com/prometheus/common v0.40.0 // indirect
	github.com/prometheus/procfs v0.9.0 // indirect
	github.com/rivo/uniseg v0.4.2 // indirect
	github.com/rs/zerolog v1.28.0 // indirect
	github.com/rubenv/sql-migrate v1.3.1 // indirect
	github.com/russross/blackfriday/v2 v2.1.0 // indirect
	github.com/ryanuber/go-glob v1.0.0 // indirect
	github.com/sergi/go-diff v1.3.1 // indirect
	github.com/shopspring/decimal v1.3.1 // indirect
	github.com/spf13/afero v1.9.2 // indirect
	github.com/spf13/cast v1.5.0 // indirect
	github.com/spf13/cobra v1.7.0 // indirect
	github.com/stretchr/objx v0.5.0 // indirect
	github.com/texttheater/golang-levenshtein v1.0.1 // indirect
	github.com/ugorji/go/codec v1.2.7 // indirect
	github.com/virtuald/go-ordered-json v0.0.0-20170621173500-b18e6e673d74 // indirect
	github.com/vmihailenco/msgpack/v5 v5.3.5 // indirect
	github.com/vmihailenco/tagparser/v2 v2.0.0 // indirect
	github.com/xanzy/ssh-agent v0.3.2 // indirect
	github.com/xeipuuv/gojsonpointer v0.0.0-20190905194746-02993c407bfb // indirect
	github.com/xeipuuv/gojsonreference v0.0.0-20180127040603-bd5ef7bd5415 // indirect
	github.com/xeipuuv/gojsonschema v1.2.0 // indirect
	github.com/xlab/treeprint v1.1.0 // indirect
	github.com/xo/terminfo v0.0.0-20220910002029-abceb7e1c41e // indirect
	github.com/xrash/smetrics v0.0.0-20201216005158-039620a65673 // indirect
	github.com/zealic/xignore v0.3.3 // indirect
	go.etcd.io/bbolt v1.3.7 // indirect
	go.opencensus.io v0.24.0 // indirect
	go.opentelemetry.io/otel v1.14.0 // indirect
	go.opentelemetry.io/otel/trace v1.14.0 // indirect
	go.starlark.net v0.0.0-20221020143700-22309ac47eac // indirect
	go.uber.org/atomic v1.10.0 // indirect
	go4.org/intern v0.0.0-20220617035311-6925f38cc365 // indirect
	go4.org/unsafe/assume-no-moving-gc v0.0.0-20230525183740-e7c30c78aeb2 // indirect
	gocloud.dev v0.27.0 // indirect
	golang.org/x/crypto v0.7.0 // indirect
	golang.org/x/mod v0.10.0 // indirect
	golang.org/x/net v0.9.0 // indirect
	golang.org/x/oauth2 v0.5.0 // indirect
	golang.org/x/sync v0.1.0 // indirect
	golang.org/x/sys v0.7.0 // indirect
	golang.org/x/term v0.7.0 // indirect
	golang.org/x/text v0.9.0 // indirect
	golang.org/x/time v0.3.0 // indirect
	golang.org/x/tools v0.8.0 // indirect
	golang.org/x/xerrors v0.0.0-20220907171357-04be3eba64a2 // indirect
	google.golang.org/api v0.110.0 // indirect
	google.golang.org/appengine v1.6.7 // indirect
	google.golang.org/genproto v0.0.0-20230306155012-7f2fa6fef1f4 // indirect
	google.golang.org/grpc v1.53.0 // indirect
	google.golang.org/protobuf v1.28.1 // indirect
	gopkg.in/inf.v0 v0.9.1 // indirect
	gopkg.in/square/go-jose.v2 v2.6.0 // indirect
	gopkg.in/warnings.v0 v0.1.2 // indirect
	gopkg.in/yaml.v2 v2.4.0 // indirect
	inet.af/netaddr v0.0.0-20220811202034-502d2d690317 // indirect
	k8s.io/api v0.27.4 // indirect
	k8s.io/apiextensions-apiserver v0.27.2 // indirect
	k8s.io/apiserver v0.27.2 // indirect
	k8s.io/component-base v0.27.2 // indirect
	k8s.io/kube-openapi v0.0.0-20230501164219-8b0f38b5fd1f // indirect
	k8s.io/kubectl v0.27.2 // indirect
	k8s.io/utils v0.0.0-20230220204549-a5ecb0141aa5 // indirect
	oras.land/oras-go v1.2.3 // indirect
	sigs.k8s.io/json v0.0.0-20221116044647-bc3834ca7abd // indirect
	sigs.k8s.io/kustomize/api v0.13.2 // indirect
	sigs.k8s.io/kustomize/kyaml v0.14.1 // indirect
	sigs.k8s.io/structured-merge-diff/v4 v4.2.3 // indirect
	sigs.k8s.io/yaml v1.3.0 // indirect
)
